<?xml version="1.0" encoding="UTF-8"?>
<svg width="60px" height="60px" viewBox="0 0 60 60" version="1.1" xmlns="http://www.w3.org/2000/svg" xmlns:xlink="http://www.w3.org/1999/xlink">
    <!-- Generator: Sketch 48 (47235) - http://www.bohemiancoding.com/sketch -->
    <title>feature-4</title>
    <desc>Created with Sketch.</desc>
    <defs>
        <linearGradient x1="50%" y1="0%" x2="50%" y2="104.170859%" id="linearGradient-1">
            <stop stop-color="#F68A12" offset="0%"></stop>
            <stop stop-color="#A41C21" offset="100%"></stop>
        </linearGradient>
    </defs>
    <g id="Homepage_v2" stroke="none" stroke-width="1" fill="none" fill-rule="evenodd" transform="translate(-720.000000, -1915.000000)">
        <g id="feature-4" transform="translate(720.000000, 1915.000000)">
            <circle id="Oval" fill="url(#linearGradient-1)" cx="30" cy="30" r="30"></circle>
            <g id="heart" transform="translate(15.000000, 19.500000)" fill="#FFFFFF" fill-rule="nonzero" opacity="0.9">
                <path d="M3.9750756,18.4571558 L14.0813256,26.0207547 C14.4925403,26.3283107 15.164932,26.3245137 15.5742944,26.0207547 L25.7064768,18.4210844 C28.7109375,15.1879496 29.6370968,13.124287 29.6370968,9.49246851 C29.6370968,3.7969874 24.0801411,0 21.3016633,0 C19.4493448,0 17.5970262,0 14.8259577,2.84774055 C12.0400706,0 10.187752,0 8.33543347,0 C5.55695565,0 0,3.7969874 0,9.49246851 C0,13.124287 0.926159274,15.1879496 3.9750756,18.4571558 Z M9.26159274,3.7969874 C12.0400706,3.7969874 12.9662298,5.6954811 14.8185484,7.59397481 C16.6708669,5.6954811 17.5970262,3.7969874 20.375504,3.7969874 C23.4911038,3.7969874 25.9324597,6.64472796 25.9324597,9.49246851 C25.9324597,11.3814697 25.9324597,13.1109975 23.4244204,15.4309568 L15.5224294,22.1801019 C15.1334425,22.5123383 14.4925403,22.5028458 14.118372,22.1838989 L6.25713206,15.4670282 C3.7046371,13.112896 3.7046371,11.3814697 3.7046371,9.49246851 C3.7046371,6.64472796 6.14599294,3.7969874 9.26159274,3.7969874 Z"></path>
            </g>
        </g>
    </g>
</svg>